lab2/func_chema/counter_v2/counter_v2.sim/sim_1/behav/xsim/simulate.log
Vivado Simulator 2019.1
Time resolution is 1 ps
everything ok ans_out =0000000000000000000000000000000000000000 ans=00000000000000000000000000000000 i=00000000000000000000000000000000
everything ok ans_out =0000000000000000000000000000000000000001 ans=00000000000000000000000000000001 i=00000000000000000000000000000001
everything ok ans_out =0000000000000000000000000000000000000001 ans=00000000000000000000000000000001 i=00000000000000000000000000000010
everything ok ans_out =0000000000000000000000000000000000000010 ans=00000000000000000000000000000010 i=00000000000000000000000000000011
everything ok ans_out =0000000000000000000000000000000000000010 ans=00000000000000000000000000000010 i=00000000000000000000000000000100
everything ok ans_out =0000000000000000000000000000000000000011 ans=00000000000000000000000000000011 i=00000000000000000000000000000101
everything ok ans_out =0000000000000000000000000000000000000011 ans=00000000000000000000000000000011 i=00000000000000000000000000000110
everything ok ans_out =0000000000000000000000000000000000000100 ans=00000000000000000000000000000100 i=00000000000000000000000000000111
everything ok ans_out =0000000000000000000000000000000000000100 ans=00000000000000000000000000000100 i=00000000000000000000000000001000
everything ok ans_out =0000000000000000000000000000000000000101 ans=00000000000000000000000000000101 i=00000000000000000000000000001001
everything ok ans_out =0000000000000000000000000000000000000101 ans=00000000000000000000000000000101 i=00000000000000000000000000001010
everything ok ans_out =0000000000000000000000000000000000000110 ans=00000000000000000000000000000110 i=00000000000000000000000000001011
everything ok ans_out =0000000000000000000000000000000000000110 ans=00000000000000000000000000000110 i=00000000000000000000000000001100
everything ok ans_out =0000000000000000000000000000000000000111 ans=00000000000000000000000000000111 i=00000000000000000000000000001101
everything ok ans_out =0000000000000000000000000000000000000111 ans=00000000000000000000000000000111 i=00000000000000000000000000001110
everything ok ans_out =0000000000000000000000000000000000001000 ans=00000000000000000000000000001000 i=00000000000000000000000000001111
everything ok ans_out =0000000000000000000000000000000000001000 ans=00000000000000000000000000001000 i=00000000000000000000000000010000
everything ok ans_out =0000000000000000000000000000000000001001 ans=00000000000000000000000000001001 i=00000000000000000000000000010001
everything ok ans_out =0000000000000000000000000000000000001001 ans=00000000000000000000000000001001 i=00000000000000000000000000010010
everything ok ans_out =0000000000000000000000000000000000001010 ans=00000000000000000000000000001010 i=00000000000000000000000000010011
everything ok ans_out =0000000000000000000000000000000000001010 ans=00000000000000000000000000001010 i=00000000000000000000000000010100
everything ok ans_out =0000000000000000000000000000000000001011 ans=00000000000000000000000000001011 i=00000000000000000000000000010101
everything ok ans_out =0000000000000000000000000000000000001011 ans=00000000000000000000000000001011 i=00000000000000000000000000010110
everything ok ans_out =0000000000000000000000000000000000001100 ans=00000000000000000000000000001100 i=00000000000000000000000000010111
everything ok ans_out =0000000000000000000000000000000000001100 ans=00000000000000000000000000001100 i=00000000000000000000000000011000
everything ok ans_out =0000000000000000000000000000000000001101 ans=00000000000000000000000000001101 i=00000000000000000000000000011001
everything ok ans_out =0000000000000000000000000000000000001101 ans=00000000000000000000000000001101 i=00000000000000000000000000011010
everything ok ans_out =0000000000000000000000000000000000000000 ans=00000000000000000000000000000000 i=00000000000000000000000000011011
everything ok ans_out =0000000000000000000000000000000000000000 ans=00000000000000000000000000000000 i=00000000000000000000000000011100
everything ok ans_out =0000000000000000000000000000000000000001 ans=00000000000000000000000000000001 i=00000000000000000000000000011101
everything ok ans_out =0000000000000000000000000000000000000001 ans=00000000000000000000000000000001 i=00000000000000000000000000011110
everything ok ans_out =0000000000000000000000000000000000000010 ans=00000000000000000000000000000010 i=00000000000000000000000000011111
